<?xml version="1.0" encoding="UTF-8" standalone="no"?>
<svg width="45px" height="29px" viewBox="0 0 45 29" version="1.1" xmlns="http://www.w3.org/2000/svg" xmlns:xlink="http://www.w3.org/1999/xlink" xmlns:sketch="http://www.bohemiancoding.com/sketch/ns">
    <!-- Generator: Sketch 3.3.3 (12072) - http://www.bohemiancoding.com/sketch -->
    <title>american-express</title>
    <desc>Created with Sketch.</desc>
    <defs>
        <rect id="path-1" x="0" y="0" width="45" height="29" rx="2"></rect>
    </defs>
    <g id="Page-1" stroke="none" stroke-width="1" fill="none" fill-rule="evenodd" sketch:type="MSPage">
        <g id="2b-Test-Copy-3" sketch:type="MSArtboardGroup" transform="translate(-906.000000, -284.000000)">
            <g id="Group" sketch:type="MSLayerGroup" transform="translate(240.000000, 245.000000)">
                <g id="Card-Icons-Copy" transform="translate(519.000000, 39.000000)">
                    <g id="american-express" transform="translate(147.000000, 0.000000)">
                        <g id="Rectangle-57" opacity="1.1">
                            <use stroke="none" fill="#FFFFFF" fill-rule="evenodd" sketch:type="MSShapeGroup" xlink:href="#path-1"></use>
                            <use stroke="#CCCCCC" stroke-width="1" fill="none" xlink:href="#path-1"></use>
                        </g>
                        <g id="amex" transform="translate(0.000000, 9.000000)" fill="#008BB6" sketch:type="MSShapeGroup">
                            <g id="_x34__x5F_COL_x5F_SQ">
                                <path d="M28.2381227,10.9169895 L28.2381227,9.92475971 C28.2381227,9.92475971 28.1835456,9.14823208 27.3450429,9.14823208 L26.0421387,9.14823208 L26.0421387,10.9169895 L24.7015266,10.9169895 L24.7015266,5.81779137 L27.9523371,5.81779137 C27.9523371,5.81779137 29.6491887,5.61934542 29.6491887,7.31045003 C29.6491887,8.19051468 28.8990017,8.50112573 28.8990017,8.50112573 C28.8990017,8.50112573 29.5420192,8.79448061 29.5420192,9.65633041 L29.5420192,10.9160308 L28.2381227,10.9160308 M26.0411464,7.9489283 L27.4264124,7.9489283 C27.827306,7.9489283 28.1577455,7.73322619 28.1577455,7.46575556 C28.1577455,7.19828493 27.827306,6.98258281 27.4264124,6.98258281 L26.0411464,6.98258281 L26.0411464,7.9489283" id="SVGID_17_"></path>
                                <path d="M19.3073246,10.9241431 L18.1373901,10.9241431 L16.7173932,9.41422822 L15.2884655,10.9241431 L14.4757629,10.9241431 L10.3050802,10.9241431 L10.3050802,5.81631688 L14.4757629,5.81631688 L15.181296,5.81631688 L16.7173932,7.43839682 L18.2624213,5.82494497 L19.289463,5.82494497 L19.289463,5.81631688 L22.5402735,5.81631688 C22.5402735,5.81631688 24.2371252,5.6351271 24.2371252,7.31664495 C24.2371252,8.8179317 23.6744849,9.28480695 21.9419101,9.28480695 L20.6290828,9.28480695 L20.6290828,10.9241431 L19.3073246,10.9241431 M17.6283346,8.41432907 L19.289463,10.1917145 L19.289463,6.6455717 L17.6283346,8.41432907 M11.6536307,9.82070688 L14.4757629,9.82070688 L15.797521,8.41432907 L14.4757629,7.01562066 L11.6536307,7.01562066 L11.6536307,7.7998177 L14.4043165,7.7998177 L14.4043165,8.95693973 L11.6536307,8.95693973 L11.6536307,9.82070688 M20.6290828,7.9560819 L22.0133564,7.9560819 C22.4152424,7.9560819 22.7456819,7.74037978 22.7456819,7.47290916 C22.7456819,7.2063972 22.4152424,6.98973641 22.0133564,6.98973641 L20.6290828,6.98973641 L20.6290828,7.9560819" id="SVGID_20_"></path>
                                <path d="M37.374329,10.902185 L34.989806,10.902185 L34.989806,9.72780678 L37.0796127,9.72780678 C37.0796127,9.72780678 37.8297997,9.81408763 37.8297997,9.32324548 C37.8297997,8.86403963 36.6955884,8.90046932 36.6955884,8.90046932 C36.6955884,8.90046932 34.8469132,9.05577485 34.8469132,7.38192641 C34.8469132,5.71670605 36.5169724,5.81161499 36.5169724,5.81161499 L39.0900346,5.81161499 L39.0900346,7.00229068 L37.0180894,7.00229068 C37.0180894,7.00229068 36.3026333,6.86328265 36.3026333,7.36562892 C36.3026333,7.78648772 37.2750979,7.7270498 37.2750979,7.7270498 C37.2750979,7.7270498 39.321243,7.58133103 39.321243,9.11617144 C39.321243,10.763177 38.0034541,10.9088957 37.5360757,10.9088957 C37.4358523,10.907937 37.374329,10.902185 37.374329,10.902185" id="SVGID_23_"></path>
                                <path d="M30.2028982,10.9011912 L30.2028982,5.81062124 L34.3815194,5.81062124 L34.3815194,6.99266885 L31.5514487,6.99266885 L31.5514487,7.77782456 L34.3110653,7.77782456 L34.3110653,8.93494659 L31.5514487,8.93494659 L31.5514487,9.79775507 L34.3815194,9.79775507 L34.3815194,10.9011912 L30.2028982,10.9011912" id="SVGID_26_"></path>
                                <path d="M42.0987212,10.902185 L39.7141981,10.902185 L39.7141981,9.72780678 L41.7960664,9.72780678 C41.7960664,9.72780678 42.5551842,9.81408763 42.5551842,9.32324548 C42.5551842,8.86403963 41.4209728,8.90046932 41.4209728,8.90046932 C41.4209728,8.90046932 39.5722977,9.05577485 39.5722977,7.38192641 C39.5722977,5.71670605 41.2423569,5.81161499 41.2423569,5.81161499 L43.8064882,5.81161499 L43.8064882,7.00229068 L41.7424816,7.00229068 C41.7424816,7.00229068 41.0280177,6.86328265 41.0280177,7.36562892 C41.0280177,7.78648772 42.0014747,7.7270498 42.0014747,7.7270498 C42.0014747,7.7270498 44.0466275,7.58133103 44.0466275,9.11617144 C44.0466275,10.763177 42.7288386,10.9088957 42.2614602,10.9088957 C42.1592522,10.907937 42.0987212,10.902185 42.0987212,10.902185" id="SVGID_29_"></path>
                                <g id="American" transform="translate(0.750000, 0.250000)">
                                    <path d="M22.6564423,5.19523487 L22.6564423,4.20300513 C22.6564423,4.20300513 22.6018652,3.4264775 21.7633625,3.4264775 L20.4594659,3.4264775 L20.4594659,5.19523487 L19.1198462,5.19523487 L19.1198462,0.0969954625 L22.3706567,0.0969954625 C22.3706567,0.0969954625 24.0675083,-0.101450487 24.0675083,1.58965412 C24.0675083,2.46971877 23.3173213,2.78032982 23.3173213,2.78032982 C23.3173213,2.78032982 23.9682773,3.07464338 23.9682773,3.93745185 L23.9682773,5.19619355 L22.6564423,5.19619355 M20.4594659,2.22717372 L21.8437396,2.22717372 C22.2456256,2.22717372 22.5760651,2.0114716 22.5760651,1.74400097 C22.5760651,1.47653035 22.2456256,1.26082823 21.8437396,1.26082823 L20.4594659,1.26082823 L20.4594659,2.22717372" id="SVGID_2_"></path>
                                    <path d="M38.4639548,5.19523487 L36.3384248,1.7871414 L36.3384248,5.19523487 L35.1863519,5.19523487 L34.9710204,5.19523487 L33.7127702,5.19523487 L33.2384456,4.12535236 L30.7914069,4.12535236 L30.3260131,5.19523487 L29.093563,5.19523487 L28.8702931,5.19523487 L28.2272756,5.19523487 C28.2272756,5.19523487 26.4242467,4.94502041 26.4242467,2.78799923 C26.4242467,-0.0420125695 28.4703918,0.0701525322 28.5408458,0.0528963627 L30.1930435,0.0960367864 L30.1930435,1.24357206 L28.8365545,1.26082823 C28.8365545,1.26082823 27.9514132,1.26082823 27.8442436,2.37480984 C27.8313436,2.50231375 27.8253897,2.62023091 27.826382,2.72951999 C27.8313436,4.45321958 29.3753793,3.91827833 29.4249948,3.90198084 L31.0861233,0.0969954625 L32.9615909,0.0969954625 L34.9700281,4.72164889 L34.9700281,0.0969954625 L36.8633573,0.0969954625 L38.9620948,3.45332043 L38.9620948,0.0969954625 L40.3106453,0.0969954625 L40.3106453,5.19523487 L38.4639548,5.19523487 M31.3639703,2.82251157 L32.6668745,2.82251157 L32.0248494,1.30396865 L31.3639703,2.82251157" id="SVGID_5_"></path>
                                    <path d="M11.9583385,5.2194842 L11.9583385,1.7001843 L10.2793485,5.2194842 L9.18086036,5.2194842 L7.49293954,1.71648179 L7.49293954,5.2194842 L6.323005,5.2194842 L6.14438904,5.2194842 L4.84942332,5.2194842 L4.38502183,4.14960169 L1.93798317,4.14960169 L1.46465087,5.2194842 L1.69642078e-13,5.2194842 L2.22376871,0.121244791 L4.10816709,0.121244791 L6.14438904,4.80629481 L6.14438904,0.121244791 L8.26098817,0.121244791 L9.73456984,3.28775189 L11.1992207,0.121244791 L13.3158198,0.121244791 L13.3158198,5.2194842 L11.9583385,5.2194842 M2.50955424,2.84676089 L3.81345075,2.84676089 L3.1615025,1.32821798 L2.50955424,2.84676089" id="SVGID_8_"></path>
                                    <path d="M14.2436305,5.19523487 L14.2436305,0.0969954625 L18.423244,0.0969954625 L18.423244,1.28671248 L15.592181,1.28671248 L15.592181,2.07186819 L18.3517976,2.07186819 L18.3517976,3.22803155 L15.592181,3.22803155 L15.592181,4.0917987 L18.423244,4.0917987 L18.423244,5.19523487 L14.2436305,5.19523487" id="SVGID_11_"></path>
                                    <path d="M24.6212178,5.21249104 L24.6212178,0.0969954625 L25.9697683,0.0969954625 L25.9697683,5.21249104 L24.6212178,5.21249104" id="SVGID_14_"></path>
                                </g>
                            </g>
                        </g>
                    </g>
                </g>
            </g>
        </g>
    </g>
</svg>