<?xml version="1.0" encoding="UTF-8" standalone="no"?>
<svg width="45px" height="29px" viewBox="0 0 45 29" version="1.1" xmlns="http://www.w3.org/2000/svg" xmlns:xlink="http://www.w3.org/1999/xlink" xmlns:sketch="http://www.bohemiancoding.com/sketch/ns">
    <!-- Generator: Sketch 3.3.3 (12072) - http://www.bohemiancoding.com/sketch -->
    <title>paypal</title>
    <desc>Created with Sketch.</desc>
    <defs>
        <rect id="path-1" x="0" y="0" width="45" height="29" rx="2"></rect>
        <path id="path-2" d="M0.00428571429,0.0412142857 L20.2207857,0.0412142857 L20.2207857,20 L0.00428571429,20 L0.00428571429,0.0412142857 Z"></path>
    </defs>
    <g id="Page-1" stroke="none" stroke-width="1" fill="none" fill-rule="evenodd" sketch:type="MSPage">
        <g id="2b-Test-Copy-3" sketch:type="MSArtboardGroup" transform="translate(-955.000000, -284.000000)">
            <g id="Group" sketch:type="MSLayerGroup" transform="translate(240.000000, 245.000000)">
                <g id="Card-Icons-Copy" transform="translate(519.000000, 39.000000)">
                    <g id="paypal" transform="translate(196.000000, 0.000000)">
                        <g id="Rectangle-57-Copy" opacity="1.1">
                            <use stroke="none" fill="#FFFFFF" fill-rule="evenodd" sketch:type="MSShapeGroup" xlink:href="#path-1"></use>
                            <use stroke="#CCCCCC" stroke-width="1" fill="none" xlink:href="#path-1"></use>
                        </g>
                        <g id="Group" transform="translate(11.500000, 4.000000)">
                            <g id="Group-4" transform="translate(0.357143, 0.500000)">
                                <mask id="mask-3" sketch:name="Clip 2" fill="white">
                                    <use xlink:href="#path-2"></use>
                                </mask>
                                <g id="Clip-2"></g>
                                <path d="M13.8262143,16.0847143 C13.7402857,16.6492857 13.3090714,16.6492857 12.892,16.6492857 L12.6547143,16.6492857 L12.8211429,15.5951429 C12.8312143,15.5314286 12.8861429,15.4845 12.9507143,15.4845 L13.0594286,15.4845 C13.3433571,15.4845 13.6115,15.4845 13.7497857,15.6462143 C13.8325,15.7430714 13.8575,15.8864286 13.8262143,16.0847143 L13.8262143,16.0847143 Z M13.6447143,14.6117143 L12.0718571,14.6117143 C11.9642857,14.6117143 11.8727143,14.6899286 11.856,14.7962143 L11.2199286,18.8292857 C11.2074286,18.9088571 11.2689286,18.9807857 11.3495,18.9807857 L12.1565,18.9807857 C12.2317857,18.9807857 12.2958571,18.9260714 12.3075714,18.8516429 L12.4879286,17.7082857 C12.5047143,17.602 12.5962857,17.5237857 12.7037857,17.5237857 L13.2015,17.5237857 C14.2375,17.5237857 14.8354286,17.0224286 14.9917143,16.0286429 C15.0620714,15.5940714 14.9945714,15.2525714 14.7910714,15.0135 C14.5673571,14.7506429 14.1709286,14.6117143 13.6447143,14.6117143 L13.6447143,14.6117143 Z" id="Fill-1" fill="#2790C3" sketch:type="MSShapeGroup" mask="url(#mask-3)"></path>
                                <path d="M2.60792857,16.0847143 C2.52192857,16.6492857 2.09071429,16.6492857 1.67371429,16.6492857 L1.43642857,16.6492857 L1.60285714,15.5951429 C1.61292857,15.5314286 1.66785714,15.4845 1.73235714,15.4845 L1.84114286,15.4845 C2.125,15.4845 2.39321429,15.4845 2.53142857,15.6462143 C2.61414286,15.7430714 2.63921429,15.8864286 2.60792857,16.0847143 L2.60792857,16.0847143 Z M2.42642857,14.6117143 L0.8535,14.6117143 C0.745928571,14.6117143 0.654428571,14.6899286 0.637642857,14.7962143 L0.00164285714,18.8292857 C-0.0109285714,18.9088571 0.0505714286,18.9807857 0.131142857,18.9807857 L0.882142857,18.9807857 C0.989642857,18.9807857 1.08121429,18.9025714 1.098,18.7963571 L1.26964286,17.7082857 C1.28635714,17.602 1.37792857,17.5237857 1.4855,17.5237857 L1.98321429,17.5237857 C3.01921429,17.5237857 3.61714286,17.0224286 3.77342857,16.0286429 C3.84371429,15.5940714 3.77621429,15.2525714 3.57271429,15.0135 C3.349,14.7506429 2.95257143,14.6117143 2.42642857,14.6117143 L2.42642857,14.6117143 Z" id="Fill-3" fill="#27346A" sketch:type="MSShapeGroup" mask="url(#mask-3)"></path>
                            </g>
                            <path d="M6.43507143,18.0325714 C6.36235714,18.4629286 6.02071429,18.7517857 5.585,18.7517857 C5.36657143,18.7517857 5.19164286,18.6815 5.07921429,18.5485 C4.96778571,18.4166429 4.92585714,18.2287143 4.96121429,18.0195 C5.02907143,17.593 5.37614286,17.2947857 5.80528571,17.2947857 C6.01914286,17.2947857 6.19278571,17.3657143 6.30735714,17.5 C6.42278571,17.6352143 6.46807143,17.8243571 6.43507143,18.0325714 L6.43507143,18.0325714 Z M7.48471429,16.5666429 L6.73157143,16.5666429 C6.667,16.5666429 6.61207143,16.6135714 6.60207143,16.6772857 L6.56892857,16.8879286 L6.51628571,16.8116429 C6.35314286,16.5748571 5.98964286,16.4957143 5.62664286,16.4957143 C4.79457143,16.4957143 4.08378571,17.1262857 3.94542857,18.0106429 C3.87342857,18.4518571 3.97564286,18.8735 4.22578571,19.1677857 C4.45564286,19.4381429 4.78364286,19.5507143 5.17435714,19.5507143 C5.84507143,19.5507143 6.21707143,19.1198571 6.21707143,19.1198571 L6.18342857,19.3291429 C6.17085714,19.4087857 6.23235714,19.4807857 6.31292857,19.4807857 L6.99121429,19.4807857 C7.09871429,19.4807857 7.19028571,19.4025714 7.20707143,19.2963571 L7.61421429,16.7181429 C7.62678571,16.6385714 7.56528571,16.5666429 7.48471429,16.5666429 L7.48471429,16.5666429 Z" id="Fill-5" fill="#27346A" sketch:type="MSShapeGroup"></path>
                            <path d="M17.6534286,18.0325714 C17.5806429,18.4629286 17.2390714,18.7517857 16.8032857,18.7517857 C16.5848571,18.7517857 16.41,18.6815 16.2975714,18.5485 C16.1861429,18.4166429 16.1442143,18.2287143 16.1795714,18.0195 C16.2473571,17.593 16.5945,17.2947857 17.0235714,17.2947857 C17.2374286,17.2947857 17.4111429,17.3657143 17.5257143,17.5 C17.6410714,17.6352143 17.6864286,17.8243571 17.6534286,18.0325714 L17.6534286,18.0325714 Z M18.703,16.5666429 L17.9498571,16.5666429 C17.8853571,16.5666429 17.8304286,16.6135714 17.8203571,16.6772857 L17.7872143,16.8879286 L17.7345714,16.8116429 C17.5715,16.5748571 17.208,16.4957143 16.845,16.4957143 C16.0129286,16.4957143 15.3020714,17.1262857 15.1637857,18.0106429 C15.0917857,18.4518571 15.194,18.8735 15.4441429,19.1677857 C15.674,19.4381429 16.0019286,19.5507143 16.3927143,19.5507143 C17.0634286,19.5507143 17.4354286,19.1198571 17.4354286,19.1198571 L17.4017857,19.3291429 C17.3891429,19.4087857 17.4507143,19.4807857 17.5312857,19.4807857 L18.2095,19.4807857 C18.3170714,19.4807857 18.4085714,19.4025714 18.4253571,19.2963571 L18.8325714,16.7181429 C18.8450714,16.6385714 18.7835714,16.5666429 18.703,16.5666429 L18.703,16.5666429 Z" id="Fill-6" fill="#2790C3" sketch:type="MSShapeGroup"></path>
                            <g id="Group-10" transform="translate(7.357143, 14.500000)" sketch:type="MSShapeGroup">
                                <path d="M4.13892857,2.06664286 L3.38192857,2.06664286 C3.3095,2.06664286 3.24178571,2.10257143 3.20114286,2.16242857 L2.15685714,3.70042857 L1.71428571,2.2225 C1.68657143,2.13 1.6015,2.06664286 1.50492857,2.06664286 L0.760785714,2.06664286 C0.670928571,2.06664286 0.607714286,2.155 0.636714286,2.24007143 L1.47028571,4.68678571 L0.686214286,5.79307143 C0.624714286,5.87992857 0.686785714,6 0.793214286,6 L1.5495,6 C1.62114286,6 1.68828571,5.96485714 1.72907143,5.90592857 L4.24671429,2.2725 C4.30692857,2.1855 4.24471429,2.06664286 4.13892857,2.06664286" id="Fill-7" fill="#27346A"></path>
                                <path d="M12.2335714,0.722428571 L11.5880714,4.82935714 C11.5755714,4.90885714 11.6370714,4.98078571 11.7175714,4.98078571 L12.3667857,4.98078571 C12.4743571,4.98078571 12.5659286,4.90257143 12.5826429,4.79635714 L13.2191429,0.763214286 C13.2317143,0.683642857 13.1702143,0.611714286 13.0896429,0.611714286 L12.3631429,0.611714286 C12.2985714,0.611714286 12.2436429,0.658714286 12.2335714,0.722428571" id="Fill-9" fill="#2790C3"></path>
                            </g>
                            <path d="M8.45142857,13.6440714 L10.5719286,13.6440714 C10.8200714,13.6440714 11.0282857,13.4661429 11.067,13.221 L11.0877857,13.113 L11.4872857,10.5800714 L11.513,10.4399286 C11.553,10.1862857 11.7686429,10.002 12.0256429,10.002 L12.3427857,10.002 C13.4354286,10.002 14.3288571,9.76064286 14.9982143,9.28464286 C15.751,8.74935714 16.2451429,7.90021429 16.4669286,6.76085714 C16.6735714,5.70014286 16.5314286,4.881 16.0445,4.32607143 C15.8925714,4.153 15.6982143,4.003 15.4665714,3.88028571 L15.4609286,3.87735714 L15.462,3.871 C15.6212857,2.85542857 15.4565714,2.157 14.9112857,1.53571429 C14.3373571,0.881714286 13.2937857,0.550142857 11.8094286,0.550142857 L7.73428571,0.550142857 C7.44992857,0.550142857 7.21142857,0.753928571 7.16714286,1.03478571 L5.47021429,11.7952143 C5.45464286,11.8938571 5.483,11.994 5.54785714,12.0697857 C5.61271429,12.1457143 5.70714286,12.1892143 5.807,12.1892143 L8.33321429,12.1892143 L8.33157143,12.1995714 L8.15792857,13.3007143 C8.14442857,13.3866429 8.16907143,13.4738571 8.22557143,13.54 C8.28214286,13.6061429 8.36442857,13.6440714 8.45142857,13.6440714" id="Fill-11" fill="#27346A" sketch:type="MSShapeGroup"></path>
                            <path d="M9.63364286,3.886 C9.6605,3.7155 9.76992857,3.57592857 9.91721429,3.50528571 C9.98421429,3.47321429 10.059,3.45535714 10.1374286,3.45535714 L13.3318571,3.45535714 C13.7102857,3.45535714 14.0630714,3.48014286 14.3857143,3.53214286 C14.4778571,3.54692857 14.5675714,3.564 14.6547143,3.58335714 C14.7418571,3.60271429 14.8264286,3.62428571 14.9083571,3.64828571 C14.9492857,3.66021429 14.9895714,3.67278571 15.0292143,3.68592857 C15.1875714,3.7385 15.3350714,3.8005 15.4707857,3.87242857 C15.6307143,2.8525 15.4696429,2.15842857 14.918,1.52985714 C14.3106429,0.837714286 13.2133571,0.541214286 11.8094286,0.541214286 L7.73428571,0.541214286 C7.44735714,0.541214286 7.20307143,0.75 7.15835714,1.03342857 L5.46142857,11.7938571 C5.42792857,12.0062143 5.59207143,12.1981429 5.807,12.1981429 L8.32278571,12.1981429 L9.63364286,3.886" id="Fill-12" fill="#27346A" sketch:type="MSShapeGroup"></path>
                            <path d="M15.4707857,3.87242857 L15.4707857,3.87242857 C15.4585714,3.95021429 15.445,4.02935714 15.4290714,4.11107143 C14.8917857,6.87028571 13.0530714,7.82428571 10.7047143,7.82428571 L9.509,7.82428571 C9.22207143,7.82428571 8.97985714,8.03307143 8.93514286,8.3165 L8.14914286,13.2992857 C8.11985714,13.485 8.26342857,13.653 8.45142857,13.653 L10.5719286,13.653 C10.8229286,13.653 11.0366429,13.4703571 11.0757143,13.2224286 L11.0965714,13.1146429 L11.4960714,10.5815 L11.5217857,10.4415714 C11.5609286,10.1935714 11.7745714,10.0109286 12.0255714,10.0109286 L12.3427857,10.0109286 C14.3971429,10.0109286 16.0057143,9.17628571 16.4757143,6.76257143 C16.6721429,5.754 16.5706429,4.91207143 16.0512857,4.32021429 C15.8941429,4.14121429 15.6987143,3.99314286 15.4707857,3.87242857" id="Fill-13" fill="#2790C3" sketch:type="MSShapeGroup"></path>
                            <path d="M14.9083571,3.64828571 C14.8264286,3.62428571 14.7418571,3.60271429 14.6547143,3.58335714 C14.5675714,3.564 14.4778571,3.54692857 14.3857143,3.53214286 C14.0630714,3.48014286 13.7102857,3.45535714 13.3318571,3.45535714 L10.1374286,3.45535714 C10.059,3.45535714 9.98421429,3.47321429 9.91721429,3.50528571 C9.76992857,3.57592857 9.6605,3.7155 9.63364286,3.886 L8.95471429,8.19078571 L8.93514286,8.3165 C8.97985714,8.03307143 9.22207143,7.82428571 9.509,7.82428571 L10.7047143,7.82428571 C13.0530714,7.82428571 14.8917857,6.87028571 15.4290714,4.11107143 C15.445,4.02935714 15.4585714,3.95021429 15.4707857,3.87242857 C15.3350714,3.8005 15.1875714,3.7385 15.0292143,3.68592857 C14.9895714,3.67278571 14.9492857,3.66021429 14.9083571,3.64828571" id="Fill-14" fill="#1F264F" sketch:type="MSShapeGroup"></path>
                        </g>
                    </g>
                </g>
            </g>
        </g>
    </g>
</svg>