<svg width="296" height="296" viewBox="0 0 296 296" fill="none" xmlns="http://www.w3.org/2000/svg">
<path fill-rule="evenodd" clip-rule="evenodd" d="M148 32C83.935 32 32 83.935 32 148C32 212.065 83.935 264 148 264V296C66.2619 296 0 229.738 0 148C0 66.2619 66.2619 0 148 0V32Z" fill="white" fill-opacity="0.4"/>
<path fill-rule="evenodd" clip-rule="evenodd" d="M148 296C229.738 296 296 229.738 296 148C296 66.2619 229.738 0 148 0V32C212.065 32 264 83.935 264 148C264 212.065 212.065 264 148 264V296Z" fill="#E00457"/>
</svg>
