{
  "": {
    "1": {
      "2": {
        "00000444x00000400x00000200": {
          "00000000000000000000x00000000000000800000": {
            "rangeBegin": 0,
            "rangeEnd": 80,
            "formula": "8.00",
            "printerId": 5,
            "colorId": 5
          },
          "00000000000000008000x00000000099999990000": {
            "rangeBegin": 0.8,
            "rangeEnd": 9999999,
            "formula": "*5.00",
            "printerId": 5,
            "colorId": 6
          }
        },
        "00000144x00000200x00000100": {
          "0000000000000000030x000000000000000010000": {
            "rangeBegin": 0.03,
            "rangeEnd": 1,
            "formula": "5.00",
            "printerId": 6,
            "colorId": 7
          },
          "0000000000000000000x000000000000000200000": {
            "rangeBegin": 0,
            "rangeEnd": 20,
            "formula": "7.00",
            "printerId": 6,
            "colorId": 7
          },
          "0000000000000008000x00000000099999990000": {
            "rangeBegin": 0.8,
            "rangeEnd": 9999999,
            "formula": "5.00",
            "printerId": 6,
            "colorId": 7
          }
        }
      }
    }
  }
}